\relax 
\providecommand\hyper@newdestlabel[2]{}
\providecommand*\new@tpo@label[2]{}
\providecommand\HyperFirstAtBeginDocument{\AtBeginDocument}
\HyperFirstAtBeginDocument{\ifx\hyper@anchor\@undefined
\global\let\oldcontentsline\contentsline
\gdef\contentsline#1#2#3#4{\oldcontentsline{#1}{#2}{#3}}
\global\let\oldnewlabel\newlabel
\gdef\newlabel#1#2{\newlabelxx{#1}#2}
\gdef\newlabelxx#1#2#3#4#5#6{\oldnewlabel{#1}{{#2}{#3}}}
\AtEndDocument{\ifx\hyper@anchor\@undefined
\let\contentsline\oldcontentsline
\let\newlabel\oldnewlabel
\fi}
\fi}
\global\let\hyper@last\relax 
\gdef\HyperFirstAtBeginDocument#1{#1}
\providecommand\HyField@AuxAddToFields[1]{}
\providecommand\HyField@AuxAddToCoFields[2]{}
\catcode `"\active 
\catcode `<\active 
\catcode `>\active 
\@nameuse{es@quoting}
\@writefile{lof}{\deactivateaddvspace  }
\@writefile{lot}{\deactivateaddvspace  }
\babel@aux{spanish}{}
\@writefile{toc}{\contentsline {section}{\numberline {1}{\uppercase {T}\IeC {\'e}rminos de referencia}}{2}{section.1}}
\@writefile{toc}{\contentsline {section}{\numberline {2}{\uppercase {I}ntroducci\IeC {\'o}n}}{2}{section.2}}
\@writefile{toc}{\contentsline {subsection}{\numberline {2.1}{\IeC {\'A}reas quemadas}}{3}{subsection.2.1}}
\@writefile{lot}{\contentsline {table}{\numberline {1}{\ignorespaces Descripci\IeC {\'o}n del producto MOD64A1\relax }}{3}{table.caption.1}}
\providecommand*\caption@xref[2]{\@setref\relax\@undefined{#1}}
\newlabel{mod64}{{1}{3}{Descripción del producto MOD64A1\relax }{table.caption.1}{}}
\@writefile{toc}{\contentsline {subsection}{\numberline {2.2}{Focos de calor}}{3}{subsection.2.2}}
\@writefile{toc}{\contentsline {subsection}{\numberline {2.3}{\IeC {\'I}ndice de peligro meteorol\IeC {\'o}gico de incendios}}{4}{subsection.2.3}}
\@writefile{lof}{\contentsline {figure}{\numberline {1}{\ignorespaces Localizaci\IeC {\'o}n de los pa\IeC {\'\i }ses intervinientes en el proyecto SIRIS en Latinoam\IeC {\'e}rica\relax }}{5}{figure.caption.2}}
\newlabel{fig:mapa_ub}{{1}{5}{Localización de los países intervinientes en el proyecto SIRIS en Latinoamérica\relax }{figure.caption.2}{}}
\@writefile{toc}{\contentsline {section}{\numberline {3}{ \uppercase {\IeC {\'a}}rea de estudio}}{5}{section.3}}
\@writefile{toc}{\contentsline {section}{\numberline {4}{\uppercase {\IeC {\'a}}reas quemadas}}{5}{section.4}}
\@writefile{toc}{\contentsline {subsection}{\numberline {4.1}{\uppercase {p}roductos calculados}}{5}{subsection.4.1}}
\@writefile{lof}{\contentsline {figure}{\numberline {2}{\ignorespaces Distribuci\IeC {\'o}n de \IeC {\'a}reas quemadas de tipo mensual. El color verde indica que el \IeC {\'a}rea se ha quemado una sola vez mientras que el color rojo indica mas de una quema\relax }}{6}{figure.caption.3}}
\newlabel{fig:aq}{{2}{6}{Distribución de áreas quemadas de tipo mensual. El color verde indica que el área se ha quemado una sola vez mientras que el color rojo indica mas de una quema\relax }{figure.caption.3}{}}
\@writefile{toc}{\contentsline {section}{\numberline {5}{\uppercase {F}ocos de calor}}{7}{section.5}}
\@writefile{lof}{\contentsline {figure}{\numberline {3}{\ignorespaces Divisi\IeC {\'o}n espacial de la informaci\IeC {\'o}n de focos de calor provista por el servicio Lance-Near Real Time de NASA. En esta es posible observar un \IeC {\'a}rea de solapamiento entre las regiones de Am\IeC {\'e}rica Central y Am\IeC {\'e}rica del Sur\relax }}{7}{figure.caption.4}}
\newlabel{ub1}{{3}{7}{División espacial de la información de focos de calor provista por el servicio Lance-Near Real Time de NASA. En esta es posible observar un área de solapamiento entre las regiones de América Central y América del Sur\relax }{figure.caption.4}{}}
\@writefile{toc}{\contentsline {subsection}{\numberline {5.1}{\uppercase {p}roductos calculados}}{7}{subsection.5.1}}
\@writefile{lof}{\contentsline {figure}{\numberline {4}{\ignorespaces Focos de calor detectados por los sensres MODIS Terra \& Aqua y el sensor VIIRS. el d\IeC {\'\i }a 5 de Octubre de 2018\relax }}{8}{figure.caption.5}}
\newlabel{fig:focos}{{4}{8}{Focos de calor detectados por los sensres MODIS Terra \& Aqua y el sensor VIIRS. el día 5 de Octubre de 2018\relax }{figure.caption.5}{}}
\@writefile{toc}{\contentsline {section}{\numberline {6}{\uppercase {s}istema meterorol\IeC {\'o}gico de peligro de incencios \uppercase {fwi}}}{8}{section.6}}
\@writefile{toc}{\contentsline {subsection}{\numberline {6.1}{C\IeC {\'o}digo de humedad del combustible fino FFMC}}{8}{subsection.6.1}}
\@writefile{lof}{\contentsline {figure}{\numberline {5}{\ignorespaces Diagrama de distribuci\IeC {\'o}n de la informaci\IeC {\'o}n para el \IeC {\'\i }ndice meteorol\IeC {\'o}gico de peligro de incendio\relax }}{9}{figure.caption.6}}
\newlabel{fig:diag1}{{5}{9}{Diagrama de distribución de la información para el índice meteorológico de peligro de incendio\relax }{figure.caption.6}{}}
\@writefile{toc}{\contentsline {subsection}{\numberline {6.2}{C\IeC {\'o}digo de humedad del mantillo DMC}}{9}{subsection.6.2}}
\@writefile{toc}{\contentsline {subsection}{\numberline {6.3}{C\IeC {\'o}digo de sequ\IeC {\'\i }a DC}}{9}{subsection.6.3}}
\@writefile{toc}{\contentsline {subsection}{\numberline {6.4}{\IeC {\'I}ndice de propagaci\IeC {\'o}n inicial ISI}}{10}{subsection.6.4}}
\@writefile{toc}{\contentsline {subsection}{\numberline {6.5}{\IeC {\'I}ndice de combustible disponible BUI}}{10}{subsection.6.5}}
\@writefile{toc}{\contentsline {subsection}{\numberline {6.6}{FWI}}{10}{subsection.6.6}}
\@writefile{toc}{\contentsline {subsection}{\numberline {6.7}{ Informaci\IeC {\'o}n meteorol\IeC {\'o}gica}}{10}{subsection.6.7}}
\@writefile{lof}{\contentsline {figure}{\numberline {6}{\ignorespaces Mapa global de temperatura \relax }}{11}{figure.caption.7}}
\newlabel{fig:test1}{{6}{11}{Mapa global de temperatura \relax }{figure.caption.7}{}}
\@writefile{lof}{\contentsline {figure}{\numberline {7}{\ignorespaces Mapa global de precipitaci\IeC {\'o}n\relax }}{11}{figure.caption.7}}
\newlabel{fig:test2}{{7}{11}{Mapa global de precipitación\relax }{figure.caption.7}{}}
\@writefile{lof}{\contentsline {figure}{\numberline {8}{\ignorespaces \IeC {\'I}ndice meteorol\IeC {\'o}gico de incendios, junto con todos los sub\IeC {\'\i }ndices y las variables meteorol\IeC {\'o}gicas utilizadas como informaci\IeC {\'o}n de entrada para el c\IeC {\'a}lculo del modelo\relax }}{11}{figure.caption.8}}
\newlabel{fig:fwi}{{8}{11}{Índice meteorológico de incendios, junto con todos los subíndices y las variables meteorológicas utilizadas como información de entrada para el cálculo del modelo\relax }{figure.caption.8}{}}
\@writefile{toc}{\contentsline {section}{\numberline {7}{\uppercase {conclusiones}}}{11}{section.7}}
