\relax 
\providecommand\hyper@newdestlabel[2]{}
\providecommand*\new@tpo@label[2]{}
\providecommand\HyperFirstAtBeginDocument{\AtBeginDocument}
\HyperFirstAtBeginDocument{\ifx\hyper@anchor\@undefined
\global\let\oldcontentsline\contentsline
\gdef\contentsline#1#2#3#4{\oldcontentsline{#1}{#2}{#3}}
\global\let\oldnewlabel\newlabel
\gdef\newlabel#1#2{\newlabelxx{#1}#2}
\gdef\newlabelxx#1#2#3#4#5#6{\oldnewlabel{#1}{{#2}{#3}}}
\AtEndDocument{\ifx\hyper@anchor\@undefined
\let\contentsline\oldcontentsline
\let\newlabel\oldnewlabel
\fi}
\fi}
\global\let\hyper@last\relax 
\gdef\HyperFirstAtBeginDocument#1{#1}
\providecommand\HyField@AuxAddToFields[1]{}
\providecommand\HyField@AuxAddToCoFields[2]{}
\catcode `"\active 
\catcode `<\active 
\catcode `>\active 
\@nameuse{es@quoting}
\@writefile{lof}{\deactivateaddvspace  }
\@writefile{lot}{\deactivateaddvspace  }
\select@language{spanish}
\@writefile{toc}{\select@language{spanish}}
\@writefile{lof}{\select@language{spanish}}
\@writefile{lot}{\select@language{spanish}}
\citation{isagro}
\@writefile{toc}{\contentsline {section}{\numberline {1}\uppercase {t}\IeC {\'e}rminos de referencia}{2}{section.1}}
\@writefile{toc}{\contentsline {section}{\numberline {2}\uppercase {I}ntroducci\IeC {\'o}n}{2}{section.2}}
\@writefile{toc}{\contentsline {section}{\numberline {3} \uppercase {\IeC {\'a}}rea de estudio}{3}{section.3}}
\@writefile{lof}{\contentsline {figure}{\numberline {1}{\ignorespaces Sector de Latinoam\IeC {\'e}rica en el cual se encuentran los pa\IeC {\'\i }ses integrantes del proyecto SIRIS.\relax }}{3}{figure.caption.1}}
\providecommand*\caption@xref[2]{\@setref\relax\@undefined{#1}}
\newlabel{fig:mapa_ub}{{1}{3}{Sector de Latinoamérica en el cual se encuentran los países integrantes del proyecto SIRIS.\relax }{figure.caption.1}{}}
\citation{mcd64}
\@writefile{toc}{\contentsline {section}{\numberline {4}\uppercase {\IeC {\'a}}reas quemadas}{4}{section.4}}
\@writefile{toc}{\contentsline {subsection}{\numberline {4.1}\uppercase {I}ntroducci\IeC {\'o}n}{4}{subsection.4.1}}
\@writefile{lot}{\contentsline {table}{\numberline {1}{\ignorespaces Descripci\IeC {\'o}n del producto MOD64A1. Extra\IeC {\'\i }do de:\url  { https://lpdaac.usgs.gov/dataset_discovery/modis/modis_products_table/mcd64a1_v006}\relax }}{4}{table.caption.2}}
\newlabel{mod64}{{1}{4}{Descripción del producto MOD64A1. Extraído de:\url { https://lpdaac.usgs.gov/dataset_discovery/modis/modis_products_table/mcd64a1_v006}\relax }{table.caption.2}{}}
\@writefile{toc}{\contentsline {subsection}{\numberline {4.2}\uppercase {C}obertura del \IeC {\'a}rea de estudio}{4}{subsection.4.2}}
\@writefile{toc}{\contentsline {subsection}{\numberline {4.3}\uppercase {p}roductos elaborados}{4}{subsection.4.3}}
\citation{Dwyer2006}
\citation{R000}
\@writefile{lof}{\contentsline {figure}{\numberline {2}{\ignorespaces Distribuci\IeC {\'o}n de las escenas MODIS utilizadas para obtener los prodcutos de \IeC {\'a}reas quemadas.\relax }}{5}{figure.caption.3}}
\newlabel{fig:mod64_tiles}{{2}{5}{Distribución de las escenas MODIS utilizadas para obtener los prodcutos de áreas quemadas.\relax }{figure.caption.3}{}}
\citation{mcd14dl}
\citation{VNP14IMGTDL}
\@writefile{toc}{\contentsline {section}{\numberline {5}\uppercase {F}ocos de calor}{6}{section.5}}
\@writefile{toc}{\contentsline {subsection}{\numberline {5.1}\uppercase {i}ntroducci\IeC {\'o}n}{6}{subsection.5.1}}
\@writefile{lot}{\contentsline {table}{\numberline {2}{\ignorespaces Informaci\IeC {\'o}n de los sensores y Productos utilizados para la obtenci\IeC {\'o}n de focos de calor en el sistema SIRIS. Extra\IeC {\'\i }do de \url  {https://earthdata.nasa.gov/earth-observation-data/near-real-time/firms}. \relax }}{7}{table.caption.4}}
\newlabel{tabla:focos}{{2}{7}{Información de los sensores y Productos utilizados para la obtención de focos de calor en el sistema SIRIS. Extraído de \url {https://earthdata.nasa.gov/earth-observation-data/near-real-time/firms}. \relax }{table.caption.4}{}}
\citation{fwi_1}
\citation{fwi}
\@writefile{toc}{\contentsline {subsection}{\numberline {5.2}\uppercase {C}obertura del \IeC {\'a}rea de estudio}{8}{subsection.5.2}}
\@writefile{lof}{\contentsline {figure}{\numberline {3}{\ignorespaces Divisi\IeC {\'o}n espacial de la informaci\IeC {\'o}n de focos de calor provista por el servicio Lance-Near Real Time de NASA. En esta es posible observar un \IeC {\'a}rea de solapamiento entre las regiones de Am\IeC {\'e}rica Central y Am\IeC {\'e}rica del Sur\relax }}{8}{figure.caption.5}}
\newlabel{ub1}{{3}{8}{División espacial de la información de focos de calor provista por el servicio Lance-Near Real Time de NASA. En esta es posible observar un área de solapamiento entre las regiones de América Central y América del Sur\relax }{figure.caption.5}{}}
\@writefile{toc}{\contentsline {subsection}{\numberline {5.3}\uppercase {p}roductos elaborados}{8}{subsection.5.3}}
\@writefile{lof}{\contentsline {figure}{\numberline {4}{\ignorespaces Focos de calor detectados por los sensres MODIS Terra \& Aqua y el sensor VIIRS. el d\IeC {\'\i }a 5 de Octubre de 2018\relax }}{9}{figure.caption.6}}
\newlabel{fig:focos_2}{{4}{9}{Focos de calor detectados por los sensres MODIS Terra \& Aqua y el sensor VIIRS. el día 5 de Octubre de 2018\relax }{figure.caption.6}{}}
\@writefile{toc}{\contentsline {section}{\numberline {6}\uppercase {s}istema meteorol\IeC {\'o}gico de peligro de incendios \uppercase {(fwi)}}{9}{section.6}}
\@writefile{toc}{\contentsline {subsection}{\numberline {6.1}\uppercase {\IeC {\'I}}ntroducci\IeC {\'o}n}{9}{subsection.6.1}}
\@writefile{lof}{\contentsline {figure}{\numberline {5}{\ignorespaces Mapa global de temperatura \relax }}{10}{figure.caption.7}}
\newlabel{fig:test1}{{5}{10}{Mapa global de temperatura \relax }{figure.caption.7}{}}
\@writefile{lof}{\contentsline {figure}{\numberline {6}{\ignorespaces Mapa global de precipitaci\IeC {\'o}n\relax }}{10}{figure.caption.7}}
\newlabel{fig:test2}{{6}{10}{Mapa global de precipitación\relax }{figure.caption.7}{}}
\@writefile{toc}{\contentsline {subsection}{\numberline {6.2}\uppercase {C}obertura del \IeC {\'a}rea de estudio}{10}{subsection.6.2}}
\@writefile{toc}{\contentsline {subsection}{\numberline {6.3} Informaci\IeC {\'o}n meteorol\IeC {\'o}gica}{10}{subsection.6.3}}
\@writefile{lof}{\contentsline {figure}{\numberline {7}{\ignorespaces \IeC {\'I}ndice meteorol\IeC {\'o}gico de incendios, junto con todos los sub\IeC {\'\i }ndices y las variables meteorol\IeC {\'o}gicas utilizadas como informaci\IeC {\'o}n de entrada para el c\IeC {\'a}lculo del modelo\relax }}{11}{figure.caption.8}}
\newlabel{fig:fwi}{{7}{11}{Índice meteorológico de incendios, junto con todos los subíndices y las variables meteorológicas utilizadas como información de entrada para el cálculo del modelo\relax }{figure.caption.8}{}}
\@writefile{toc}{\contentsline {subsection}{\numberline {6.4}\uppercase {P}roductos elaborados}{11}{subsection.6.4}}
\@writefile{toc}{\contentsline {subsubsection}{\numberline {6.4.1}C\IeC {\'o}digo de humedad del combustible fino FFMC}{11}{subsubsection.6.4.1}}
\@writefile{toc}{\contentsline {subsubsection}{\numberline {6.4.2}C\IeC {\'o}digo de humedad del mantillo DMC}{11}{subsubsection.6.4.2}}
\@writefile{toc}{\contentsline {subsubsection}{\numberline {6.4.3}C\IeC {\'o}digo de sequ\IeC {\'\i }a DC}{11}{subsubsection.6.4.3}}
\bibstyle{ieeetr}
\@writefile{lof}{\contentsline {figure}{\numberline {8}{\ignorespaces Diagrama de distribuci\IeC {\'o}n de la informaci\IeC {\'o}n para el \IeC {\'\i }ndice meteorol\IeC {\'o}gico de peligro de incendio\relax }}{12}{figure.caption.9}}
\newlabel{fig:diag1}{{8}{12}{Diagrama de distribución de la información para el índice meteorológico de peligro de incendio\relax }{figure.caption.9}{}}
\@writefile{toc}{\contentsline {subsubsection}{\numberline {6.4.4}\IeC {\'I}ndice de propagaci\IeC {\'o}n inicial ISI}{12}{subsubsection.6.4.4}}
\@writefile{toc}{\contentsline {subsubsection}{\numberline {6.4.5}\IeC {\'I}ndice de combustible disponible BUI}{12}{subsubsection.6.4.5}}
\@writefile{toc}{\contentsline {subsubsection}{\numberline {6.4.6}FWI}{12}{subsubsection.6.4.6}}
\bibdata{My_Collection}
\bibcite{isagro}{1}
\bibcite{mcd64}{2}
\bibcite{Dwyer2006}{3}
\bibcite{R000}{4}
\bibcite{mcd14dl}{5}
\bibcite{VNP14IMGTDL}{6}
\bibcite{fwi_1}{7}
\bibcite{fwi}{8}
\@writefile{toc}{\contentsline {section}{\numberline {7}\uppercase {c}onclusiones}{13}{section.7}}
