\relax 
\providecommand\hyper@newdestlabel[2]{}
\@writefile{lot}{\contentsline {table}{\numberline {1}{\ignorespaces Descripci\IeC {\'o}n del producto MOD64A1\relax }}{4}{table.caption.1}}
\providecommand*\caption@xref[2]{\@setref\relax\@undefined{#1}}
\newlabel{mod64}{{1}{4}{Descripción del producto MOD64A1\relax }{table.caption.1}{}}
\@setckpt{tabla_mod64}{
\setcounter{page}{5}
\setcounter{equation}{0}
\setcounter{enumi}{0}
\setcounter{enumii}{0}
\setcounter{enumiii}{0}
\setcounter{enumiv}{0}
\setcounter{footnote}{0}
\setcounter{mpfootnote}{0}
\setcounter{part}{0}
\setcounter{section}{4}
\setcounter{subsection}{1}
\setcounter{subsubsection}{0}
\setcounter{paragraph}{0}
\setcounter{subparagraph}{0}
\setcounter{figure}{0}
\setcounter{table}{1}
\setcounter{Item}{0}
\setcounter{Hfootnote}{0}
\setcounter{bookmark@seq@number}{5}
\setcounter{lofdepth}{1}
\setcounter{lotdepth}{1}
\setcounter{ContinuedFloat}{0}
\setcounter{lips@count}{0}
\setcounter{KVtest}{0}
\setcounter{subfigure}{0}
\setcounter{subfigure@save}{0}
\setcounter{subtable}{0}
\setcounter{subtable@save}{0}
\setcounter{parentequation}{0}
\setcounter{vrcnt}{0}
\setcounter{definition}{0}
\setcounter{theorem}{0}
\setcounter{section@level}{0}
}
