\relax 
\providecommand\hyper@newdestlabel[2]{}
\providecommand*\new@tpo@label[2]{}
\providecommand\HyperFirstAtBeginDocument{\AtBeginDocument}
\HyperFirstAtBeginDocument{\ifx\hyper@anchor\@undefined
\global\let\oldcontentsline\contentsline
\gdef\contentsline#1#2#3#4{\oldcontentsline{#1}{#2}{#3}}
\global\let\oldnewlabel\newlabel
\gdef\newlabel#1#2{\newlabelxx{#1}#2}
\gdef\newlabelxx#1#2#3#4#5#6{\oldnewlabel{#1}{{#2}{#3}}}
\AtEndDocument{\ifx\hyper@anchor\@undefined
\let\contentsline\oldcontentsline
\let\newlabel\oldnewlabel
\fi}
\fi}
\global\let\hyper@last\relax 
\gdef\HyperFirstAtBeginDocument#1{#1}
\providecommand\HyField@AuxAddToFields[1]{}
\providecommand\HyField@AuxAddToCoFields[2]{}
\catcode `"\active 
\catcode `<\active 
\catcode `>\active 
\@nameuse{es@quoting}
\@writefile{lof}{\deactivateaddvspace  }
\@writefile{lot}{\deactivateaddvspace  }
\select@language{spanish}
\@writefile{toc}{\select@language{spanish}}
\@writefile{lof}{\select@language{spanish}}
\@writefile{lot}{\select@language{spanish}}
\@writefile{toc}{\contentsline {section}{\numberline {1}\uppercase {T}\IeC {\'e}rminos de referencia}{2}{section.1}}
\@writefile{toc}{\contentsline {section}{\numberline {2}\uppercase {I}ntroducci\IeC {\'o}n}{2}{section.2}}
\@writefile{toc}{\contentsline {subsection}{\numberline {2.1}Sensores Remotos}{2}{subsection.2.1}}
\@writefile{toc}{\contentsline {subsection}{\numberline {2.2}Sistema de procesamiento}{3}{subsection.2.2}}
\@writefile{toc}{\contentsline {section}{\numberline {3} \uppercase {\IeC {\'a}}rea de estudio}{3}{section.3}}
\@writefile{lof}{\contentsline {figure}{\numberline {1}{\ignorespaces Divisi\IeC {\'o}n espacial de la informaci\IeC {\'o}n de focos de calor provista por el servicio Lance-Near Real Time de NASA. En esta es posible observar un \IeC {\'a}rea de solapamiento entre las regiones de Am\IeC {\'e}rica Central y Am\IeC {\'e}rica del Sur\relax }}{3}{figure.caption.1}}
\providecommand*\caption@xref[2]{\@setref\relax\@undefined{#1}}
\newlabel{ub1}{{1}{3}{División espacial de la información de focos de calor provista por el servicio Lance-Near Real Time de NASA. En esta es posible observar un área de solapamiento entre las regiones de América Central y América del Sur\relax }{figure.caption.1}{}}
\@writefile{toc}{\contentsline {section}{\numberline {4}\uppercase {p}roductos calculados}{4}{section.4}}
\@writefile{lof}{\contentsline {figure}{\numberline {2}{\ignorespaces Focos de calor detectados por los sensres MODIS Terra \& Aqua y el sensor VIIRS. el d\IeC {\'\i }a 5 de Octubre de 2018\relax }}{4}{figure.caption.2}}
\newlabel{fig:focos}{{2}{4}{Focos de calor detectados por los sensres MODIS Terra \& Aqua y el sensor VIIRS. el día 5 de Octubre de 2018\relax }{figure.caption.2}{}}
