\select@language {spanish}
\contentsline {section}{\numberline {1}\uppercase {T}\IeC {\'e}rminos de referencia}{2}{section.1}
\contentsline {section}{\numberline {2}\uppercase {I}ntroducci\IeC {\'o}n}{2}{section.2}
\contentsline {subsection}{\numberline {2.1}Sensores Remotos}{2}{subsection.2.1}
\contentsline {subsection}{\numberline {2.2}Sistema de procesamiento}{3}{subsection.2.2}
\contentsline {section}{\numberline {3} \uppercase {\IeC {\'a}}rea de estudio}{3}{section.3}
\contentsline {section}{\numberline {4}\uppercase {p}roductos calculados}{4}{section.4}
